Hierarchical modelling
…
running chain 1...

|-------------|-------------|-------------|-------------|
|-------------------------------------------------------|

running chain 2...

|-------------|-------------|-------------|-------------|
|-------------------------------------------------------|

Follow the Bayesian workflow – look at MCMC outputs, r-hat using posterior, traceplots using bayesplot.

summarise_draws(partial_pooling_samples, default_summary_measures())

# A tibble: 109 × 7
   variable     mean   median      sd     mad        q5     q95
   <chr>       <num>    <num>   <num>   <num>     <num>   <num>
 1 alpha    -0.110   -0.110   0.00849 0.00873 -0.124    -0.0958
 2 sigma_p   0.0676   0.0670  0.00726 0.00693  0.0556    0.0802
 3 theta[1]  0.0614   0.0607  0.0424  0.0400  -0.00735   0.132
 4 theta[2]  0.0647   0.0640  0.0394  0.0369   0.000999  0.131
 5 theta[3] -0.0400  -0.0369  0.0398  0.0378  -0.107     0.0224
 6 theta[4] -0.00912 -0.00536 0.0555  0.0546  -0.0974    0.0780
 7 theta[5]  0.0137   0.0125  0.0508  0.0489  -0.0682    0.104
 8 theta[6]  0.0337   0.0305  0.0446  0.0428  -0.0366    0.108
 9 theta[7] -0.0137  -0.0123  0.0450  0.0448  -0.0865    0.0567
10 theta[8]  0.00298  0.00716 0.0505  0.0486  -0.0783    0.0843
# ℹ 99 more rows

summarise_draws(partial_pooling_samples, default_convergence_measures())

# A tibble: 109 × 4
   variable  rhat ess_bulk ess_tail
   <chr>    <num>    <num>    <num>
 1 alpha     1.01     80.2     170.
 2 sigma_p   1.01    100.      219.
 3 theta[1]  1.01    485.      533.
 4 theta[2]  1.01    303.      319.
 5 theta[3]  1.00    380.      418.
 6 theta[4]  1.00    483.      387.
 7 theta[5]  1.00    501.      428.
 8 theta[6]  1.01    437.      479.
 9 theta[7]  1.01    494.      454.
10 theta[8]  1.01    470.      399.
# ℹ 99 more rows
…
