Spatial and Spatio-temporal Modelling
…
toc <- Sys.time()
toc - tic # ~ 2minutes
saveRDS(modelGS.sim, file = "NIMBLE_IDD_A1")

It’s good practice to save samples, especially if model runtimes get long. Let’s load the samples back up.

What is the summary of each estimated parameter?

summarise_draws(modelGS.sim$samples, default_summary_measures())

# A tibble: 102 × 7
   variable  mean median     sd    mad    q5   q95
   <chr>    <num>  <num>  <num>  <num> <num> <num>
 1 RR[1]    1.10   1.09  0.150  0.142  0.874  1.36
 2 RR[2]    1.34   1.33  0.0948 0.0966 1.20   1.50
 3 RR[3]    1.26   1.26  0.0557 0.0537 1.17   1.35
 4 RR[4]    1.12   1.12  0.0623 0.0590 1.02   1.22
 5 RR[5]    1.42   1.42  0.0633 0.0613 1.32   1.53
 6 RR[6]    1.17   1.17  0.0625 0.0621 1.06   1.27
 7 RR[7]    0.950  0.948 0.0689 0.0630 0.836  1.07
 8 RR[8]    1.44   1.43  0.0621 0.0620 1.34   1.54
 9 RR[9]    1.24   1.24  0.0570 0.0513 1.14   1.34
10 RR[10]   1.36   1.36  0.0647 0.0614 1.25   1.47
# ℹ 92 more rows

And how good do convergence indicators look?

summarise_draws(modelGS.sim$samples, default_convergence_measures())

# A tibble: 102 × 4
   variable  rhat ess_bulk ess_tail
   <chr>    <num>    <num>    <num>
 1 RR[1]    0.999     419.     422.
 2 RR[2]    1.00      446.     436.
 3 RR[3]    1.00      346.     366.
 4 RR[4]    0.998     406.     368.
 5 RR[5]    1.00      413.     408.
 6 RR[6]    0.997     345.     401.
 7 RR[7]    1.00      364.     407.
 8 RR[8]    1.00      264.     376.
 9 RR[9]    1.00      402.     337.
10 RR[10]   1.00      427.     431.
# ℹ 92 more rows
…
