Introduction to Bayesian Methods
…
set.seed(1)

p <- 3    # number of explanatory variables
n <- 100   # number of observations
X <- matrix(round(rnorm(p * n), 2), nrow = n, ncol = p) # explanatory variables
true_betas <- c(c(0.2, 0.5, 0.3)) # coefficients
sigma <- 0.5
y <- rnorm(n, X %*% true_betas, sigma)

What does the dataset look like?

df <- tibble(y = y, x1 = X[,1], x2 = X[,2], x3 = X[,3])
df

# A tibble: 100 × 4
         y    x1    x2    x3
     <dbl> <dbl> <dbl> <dbl>
 1  0.134  -0.63 -0.62  0.41
 2  0.0394  0.18  0.04  1.69
 3  0.840  -0.84 -0.91  1.59
 4  0.109   1.6   0.16 -0.33
 5 -0.119   0.33 -0.65 -2.29
 6  2.23   -0.82  1.77  2.5
 7  0.700   0.49  0.72  0.67
 8  1.05    0.74  0.91  0.54
 9 -0.209   0.58  0.38 -0.01
10  1.09   -0.31  1.68  0.51
# ℹ 90 more rows
…
set.seed(1)
x1 <- round(rnorm(n), 2)
x2 <- round(rnorm(n), 2)
x3 <- round(rnorm(n), 2)

z <- 1 + 2 * x1 + 3 * x2 - 5 * x3 # linear combination with a bias
pr <- 1 / (1 + exp(-z))           # pass through an inv-logit function
y <- rbinom(n, 1, pr)             # bernoulli response variable

What does the dataset look like?

df <- tibble(y = y, x1 = x1, x2 = x2, x3 = x3)
df

# A tibble: 10,000 × 4
       y    x1    x2    x3
   <int> <dbl> <dbl> <dbl>
 1     0 -0.63 -0.8   0.24
 2     0  0.18 -1.06  0.24
 3     1 -0.84 -1.04 -0.64
 4     1  1.6  -1.19 -1.93
 5     0  0.33 -0.5   1.04
 6     0 -0.82 -0.52 -0.28
 7     1  0.49 -0.3  -1.41
 8     0  0.74  0.47  0.72
 9     0  0.58 -0.25  2.03
10     1 -0.31  1.26  0.73
# ℹ 9,990 more rows
…
set.seed(1)
x1 <- round(rnorm(n), 2)
x2 <- round(rnorm(n), 2)
x3 <- round(rnorm(n), 2)

z = 4 + 0.3 * x1 - 0.1 * x2 + 0.6 * x3
lambda = exp(z)
y = rpois(n, lambda)

What does the dataset look like?

df <- tibble(y = y, x1 = x1, x2 = x2, x3 = x3)
df

# A tibble: 10,000 × 4
       y    x1    x2    x3
   <int> <dbl> <dbl> <dbl>
 1    61 -0.63 -0.8   0.24
 2    81  0.18 -1.06  0.24
 3    29 -0.84 -1.04 -0.64
 4    39  1.6  -1.19 -1.93
 5   113  0.33 -0.5   1.04
 6    43 -0.82 -0.52 -0.28
 7    32  0.49 -0.3  -1.41
 8   106  0.74  0.47  0.72
 9   208  0.58 -0.25  2.03
10    70 -0.31  1.26  0.73
# ℹ 9,990 more rows
…
