Temporal modelling
…
running chain 1...

|-------------|-------------|-------------|-------------|
|-------------------------------------------------------|

t1 =  Sys.time()
t1 - t0

Time difference of 34.5482 secs

What is the summary of each estimated parameter from the Poisson model?

summarise_draws(nimbleMCMC_samples_week_random_walk, default_summary_measures())

# A tibble: 528 × 7
   variable           mean    median          sd         mad        q5       q95
   <chr>             <num>     <num>       <num>       <num>     <num>     <num>
 1 alpha         -8.79     -8.79     0.00497     0.00486     -8.79     -8.78
 2 alpha_exp      0.000153  0.000153 0.000000762 0.000000743  0.000152  0.000154
 3 beta_week     -0.133    -0.133    0.0000705   0.0000457   -0.133    -0.133
 4 beta_week_exp  0.876     0.876    0.0000618   0.0000401    0.875     0.876
 5 beta_year      0.000999  0.00100  0.00000366  0.00000238   0.000991  0.00100
 6 beta_year_exp  1.00      1.00     0.00000366  0.00000238   1.00      1.00
 7 rw[1]          0         0        0           0            0         0
 8 rw[2]          0.185     0.186    0.00720     0.00707      0.173     0.197
 9 rw[3]          0.281     0.282    0.00723     0.00728      0.269     0.293
10 rw[4]          0.385     0.386    0.00726     0.00726      0.373     0.397
# ℹ 518 more rows

summarise_draws(nimbleMCMC_samples_week_random_walk, default_convergence_measures())

# A tibble: 528 × 4
   variable       rhat ess_bulk ess_tail
   <chr>         <num>    <num>    <num>
 1 alpha          1.17     5.57     19.7
 2 alpha_exp      1.17     5.57     19.7
 3 beta_week      1.20     6.12     11.2
 4 beta_week_exp  1.20     6.12     11.2
 5 beta_year      1.20     6.12     11.2
 6 beta_year_exp  1.20     6.12     11.2
 7 rw[1]         NA       NA        NA
 8 rw[2]          1.08    10.4      33.1
 9 rw[3]          1.08    10.6      33.5
10 rw[4]          1.07    11.8      40.8
# ℹ 518 more rows
…
